R aplicado a la ECH
…
- El primer argumento es el data frame y luego la(s) variable(s) separadas por coma.
--

- `select`(<span style=" font-weight: bold;    border-radius: 4px; padding-right: 4px; padding-left: 4px; background-color: #b3e2cd !important;" >&lt;dataframe&gt;</span>, <span style=" font-weight: bold;    border-radius: 4px; padding-right: 4px; padding-left: 4px; background-color: #b3e2cd !important;" >&lt;variable&gt;</span>) 
<br><br>
--

.pull-left[

```r
*select(ech19, numero)
```

```
# A tibble: 107,871 x 1
   numero    
   <chr>     
 1 2019000001
 2 2019000001
 3 2019000002
 4 2019000002
 5 2019000003
 6 2019000003
 7 2019000004
 8 2019000004
 9 2019000005
10 2019000005
# … with 107,861 more rows
```
]
.pull-rigth[

```r
*select(ech19, numero, nper)
```

```
# A tibble: 107,871 x 2
   numero      nper
   <chr>      <dbl>
 1 2019000001     1
 2 2019000001     2
 3 2019000002     1
 4 2019000002     2
 5 2019000003     1
 6 2019000003     2
 7 2019000004     1
 8 2019000004     2
 9 2019000005     1
10 2019000005     2
# … with 107,861 more rows
```
…
